{
  "static_resources": {
    "listeners": [
      {
        "name": "listener",
        "address": {
          "socket_address": {
            "address": "0.0.0.0",
            "port_value": 9080
          }
        },
        "filter_chains": {
          "filters": [
            {
              "name": "envoy.filters.network.http_connection_manager",
              "typed_config": {
                "@type": "type.googleapis.com/envoy.extensions.filters.network.http_connection_manager.v3.HttpConnectionManager",
                "stat_prefix": "http_proxy",
                "http_filters": [
                  {
                    "name": "envoy.filters.http.router"
                  }
                ],
                "route_config": {
                  "name": "all",
                  "virtual_hosts": [
                    {
                      "name": "app1_cluster",
                      "domains": "*",
                      "routes": [
                        {
                          "route": {
                            "cluster": "app1_cluster"
                          },
                          "match": {
                            "prefix": "/"
                          }
                        }
                      ]
                    }
                  ]
                }
              }
            }
          ]
        }
      }
    ],
    "clusters": [
      {
        "name": "app1_cluster",
        "connect_timeout": "1s",
        "type": "STRICT_DNS",
        "load_assignment": {
          "cluster_name": "app1_cluster",
          "endpoints": [
            {
              "lb_endpoints": [
                {
                  "endpoint": {
                    "address": {
                      "socket_address": {
                        "address": "192.168.77.159",
                        "port_value": 3000
                      }
                    }
                  }
                }
              ]
            }
          ]
        }
      }
    ]
  }
}