{
  "static_resources": {
    "listeners": [
      {
        "name": "listener_0",
        "address": {
          "socket_address": {
            "address": "0.0.0.0",
            "port_value": 9001
          }
        },
        "filter_chains": {
          "filters": [
            {
              "name": "envoy.filters.network.tcp_proxy",
              "typed_config": {
                "@type": "type.googleapis.com/envoy.extensions.filters.network.tcp_proxy.v3.TcpProxy",
                "stat_prefix": "app1_tcp_proxy_",                
                "cluster": "app1_cluster",
                "idle_timeout": "5s"
              }
            }
          ]
        }
      }
    ],
    "clusters": [
      {
        "name": "app1_cluster",
        "connect_timeout": "1s",
        "type": "STRICT_DNS",
        "load_assignment": {
          "cluster_name": "app1_cluster",
          "endpoints": [
            {
              "lb_endpoints": [
                {
                  "endpoint": {
                    "address": {
                      "socket_address": {
                        "address": "192.168.77.159",
                        "port_value": 8001
                      }
                    }
                  }
                }
              ]
            }
          ]
        }
      }
    ]
  }
}